{
  "ad_time":[ 
    {
      "idjing": {
        "ad_active": 1,
        "ad_unit": "Y2EtYXBwLXB1Yi00NTE3NzkxODI3NDg2ODYyLzMwMTI1NTI3ODM=",
        "disp_time": 20000,
        "first_time": 15000,
        "id": 1,
        "id_service": 0
      }
    }
  ]
}
